{
	"info": {
		"_postman_id": "f80890c4-06fd-43db-884f-4d2cdd0f6b99",
		"name": "Capture_Leads",
		"schema": "https://schema.getpostman.com/json/collection/v2.1.0/collection.json"
	},
	"item": [
		{
			"name": "POST Lead",
			"protocolProfileBehavior": {
				"disabledSystemHeaders": {},
				"followRedirects": true
			},
			"request": {
				"auth": {
					"type": "noauth"
				},
				"method": "POST",
				"header": [
					{
						"key": "Origin",
						"value": "https://external.example.com",
						"type": "text",
						"disabled": true
					}
				],
				"body": {
					"mode": "formdata",
					"formdata": [
						{
							"key": "memberId",
							"value": "1313",
							"type": "text"
						},
						{
							"key": "cellCode",
							"value": "y85lw7fue896",
							"type": "text"
						},
						{
							"key": "campaignCode",
							"value": "5478idp9eh85",
							"type": "text"
						},
						{
							"key": "redirectUrl",
							"value": "/investment-products",
							"type": "text"
						}
					],
					"options": {
						"raw": {
							"language": "json"
						}
					}
				},
				"url": {
					"raw": "{url}/capture_leads/api/post?XDEBUG_SESSION_START=PHPSTORM",
					"host": [
						"{url}"
					],
					"path": [
						"capture_leads",
						"api",
						"post"
					],
					"query": [
						{
							"key": "XDEBUG_SESSION_START",
							"value": "PHPSTORM"
						}
					]
				}
			},
			"response": []
		}
	]
}